{
  "id": 1,
  "name": "Gustavo Pelaez",
  "email": "gustavopelaezrpo@gmail.com",
  "created_at": "2016-08-22 17:47:58",
  "updated_at": "2016-10-05 23:04:00",
  "avatar_id": 10,
  "cedula": "98772551",
  "cumpleanos": "1985-06-21",
  "game_data": {
    
  }
}