<?xml version="1.0" encoding="utf-8"?>
<!-- Generator: Adobe Illustrator 15.0.0, SVG Export Plug-In . SVG Version: 6.00 Build 0)  -->
<!DOCTYPE svg PUBLIC "-//W3C//DTD SVG 1.1//EN" "http://www.w3.org/Graphics/SVG/1.1/DTD/svg11.dtd">
<svg version="1.1" id="CARA" xmlns="http://www.w3.org/2000/svg" xmlns:xlink="http://www.w3.org/1999/xlink" x="0px" y="0px"
	 width="200px" height="200px" viewBox="0 0 200 200" enable-background="new 0 0 200 200" xml:space="preserve">
<path fill="#F6B99A" d="M136.025,90.604c-0.668,0-1.327-0.295-1.772-0.86c-0.767-0.977-0.601-2.394,0.378-3.165
	c7.809-6.144,13.84-5.455,14.1-5.424c1.235,0.159,2.108,1.288,1.951,2.521c-0.156,1.226-1.262,2.11-2.496,1.952
	c-0.231-0.02-4.604-0.356-10.769,4.494C137.004,90.445,136.514,90.604,136.025,90.604z"/>
<path fill="#F6B99A" d="M102.863,32.895C38.329,34.6,41.111,48.042,40.647,119.893c-0.065,10.354,3.352,14.689,8.914,17.017
	c3.122,1.893,6.01,2.983,6.01,2.983c62.416,20.324,75.875-12.104,75.875-12.104c-12.42,1.773-19.235-7.418-22.953-18.936
	c0.145-0.316,0.275-0.664,0.389-1.072c3.871-6.637,7.008-11.829,11.482-16.097c1.398-1.334,0.789-23.106,1.893-21.616
	c0.807,1.098,0.891,19.843,1.979,19.15c2.816-1.786,10.396-6.869,13.507-7.988c2.724-0.975,5.543-1.925,8.554-2.204
	c12.281-1.144,5.336-18.542,7.27-18.678c1.938-0.135,5.16,8.723,5.442,19.885c1.812-4.307,3.065-10.787,3.644-14.257
	C168.928,28.284,128.352,32.223,102.863,32.895z"/>
</svg>
