<?xml version="1.0" encoding="utf-8"?>
<!-- Generator: Adobe Illustrator 18.0.0, SVG Export Plug-In . SVG Version: 6.00 Build 0)  -->
<!DOCTYPE svg PUBLIC "-//W3C//DTD SVG 1.1//EN" "http://www.w3.org/Graphics/SVG/1.1/DTD/svg11.dtd">
<svg version="1.1" id="head" xmlns="http://www.w3.org/2000/svg" xmlns:xlink="http://www.w3.org/1999/xlink" x="0px" y="0px"
	 width="210px" height="236px" viewBox="0 0 210 236" enable-background="new 0 0 210 236" xml:space="preserve">
<polygon fill="#FC0F03" points="158.9,185 125.3,185 107,203.6 88.7,185 55.1,185 40,200.7 40,236 107,236 174,236 174,200.7 "/>
<polygon opacity="0.15" points="158.9,185 125.3,185 107,203.6 107,236 174,236 174,200.7 "/>
</svg>
