<?xml version="1.0" encoding="utf-8"?>
<!-- Generator: Adobe Illustrator 18.0.0, SVG Export Plug-In . SVG Version: 6.00 Build 0)  -->
<!DOCTYPE svg PUBLIC "-//W3C//DTD SVG 1.1//EN" "http://www.w3.org/Graphics/SVG/1.1/DTD/svg11.dtd">
<svg version="1.1" id="head" xmlns="http://www.w3.org/2000/svg" xmlns:xlink="http://www.w3.org/1999/xlink" x="0px" y="0px"
	 width="210px" height="236px" viewBox="0 0 210 236" enable-background="new 0 0 210 236" xml:space="preserve">
<g id="glasses_1_">
	<rect x="102.2" y="87.3" fill="#141414" width="11.5" height="3"/>
	<path fill="#141414" d="M100.8,90.1v12.3H68.4V90.1H100.8 M103.5,87.3H65.6v17.8h37.9V87.3L103.5,87.3z"/>
	<path fill="#141414" d="M146.7,90.1v12.3H115V90.1H146.7 M149.5,87.3h-37.3v17.8h37.3V87.3L149.5,87.3z"/>
</g>
<g id="eyes_3_">
	<rect id="L_3_" x="85" y="93.4" fill="#141414" width="5.8" height="5.7"/>
	<rect id="R_2_" x="123.2" y="93.4" fill="#141414" width="5.8" height="5.7"/>
</g>
</svg>
