<?xml version="1.0" encoding="utf-8"?>
<!-- Generator: Adobe Illustrator 18.0.0, SVG Export Plug-In . SVG Version: 6.00 Build 0)  -->
<!DOCTYPE svg PUBLIC "-//W3C//DTD SVG 1.1//EN" "http://www.w3.org/Graphics/SVG/1.1/DTD/svg11.dtd">
<svg version="1.1" id="head" xmlns="http://www.w3.org/2000/svg" xmlns:xlink="http://www.w3.org/1999/xlink" x="0px" y="0px"
	 width="210px" height="236px" viewBox="0 0 210 236" enable-background="new 0 0 210 236" xml:space="preserve">
<path id="beard_10_" opacity="0.15" fill="#5D5D5D" d="M131.1,147.9l0-15.3L120.4,122H93.3l-10.6,10.6l0,14.9l4.7,25.5h39.1
	L131.1,147.9z M123.2,132.8v15H90.6v-15H123.2z"/>
</svg>
